<svg version="1.1" id="Laag_1" xmlns="http://www.w3.org/2000/svg" xmlns:xlink="http://www.w3.org/1999/xlink" x="0px" y="0px"
	 viewBox="0 0 412.2 297.4" style="enable-background:new 0 0 412.2 297.4;" xml:space="preserve">
<style type="text/css">
	.st0{fill:#1AACE4;}
</style>
<g>
	<path d="M30.3,268.4c0-4.2-0.5-7.2-1.6-9c-1.1-1.8-2.9-2.6-5.6-2.6c-0.8,0-1.7,0-2.6,0.1c-0.9,0.1-1.7,0.2-2.6,0.3V293H4.9v-44.7
		c1.1-0.3,2.4-0.6,3.9-0.9c1.5-0.3,3.1-0.6,4.8-0.9c1.7-0.3,3.4-0.5,5.1-0.6c1.8-0.1,3.5-0.2,5.2-0.2c3.3,0,6.1,0.4,8.1,1.3
		c2.1,0.9,3.8,1.9,5.1,3c1.9-1.3,4-2.4,6.5-3.2c2.4-0.8,4.7-1.1,6.7-1.1c3.7,0,6.7,0.5,9.1,1.5s4.3,2.5,5.7,4.4
		c1.4,1.9,2.4,4.1,2.9,6.7c0.5,2.6,0.8,5.5,0.8,8.6V293H55.7v-24.6c0-4.2-0.5-7.2-1.6-9c-1.1-1.8-2.9-2.6-5.6-2.6
		c-0.7,0-1.7,0.2-2.9,0.5c-1.3,0.4-2.3,0.8-3.1,1.3c0.4,1.4,0.7,2.8,0.8,4.3c0.1,1.5,0.2,3.1,0.2,4.8V293H30.3V268.4z"/>
	<path d="M95.1,233.3c0,2.4-0.8,4.3-2.3,5.7c-1.6,1.4-3.4,2.1-5.5,2.1c-2.1,0-3.9-0.7-5.5-2.1c-1.6-1.4-2.3-3.3-2.3-5.7
		c0-2.4,0.8-4.3,2.3-5.7c1.6-1.4,3.4-2.1,5.5-2.1c2.1,0,3.9,0.7,5.5,2.1C94.3,229,95.1,230.9,95.1,233.3z M93.8,293H80.7v-46.3h13.1
		V293z"/>
	<path d="M106.2,248.3c2.2-0.6,5.1-1.2,8.6-1.8c3.5-0.6,7.2-0.8,11.1-0.8c3.9,0,7.2,0.5,9.8,1.5c2.6,1,4.7,2.5,6.2,4.4
		c1.5,1.9,2.6,4.1,3.3,6.7c0.6,2.6,1,5.5,1,8.6V293H133v-24.6c0-4.2-0.6-7.2-1.7-9c-1.1-1.8-3.2-2.6-6.2-2.6c-0.9,0-1.9,0-3,0.1
		c-1.1,0.1-2,0.2-2.8,0.3V293h-13.1V248.3z"/>
	<path d="M198.8,291.5c-1.2,0.4-2.5,0.7-4,1c-1.5,0.3-3.1,0.6-4.8,0.8s-3.4,0.4-5.1,0.6c-1.7,0.1-3.4,0.2-5,0.2
		c-3.8,0-7.2-0.6-10.2-1.7c-3-1.1-5.5-2.7-7.6-4.8c-2.1-2.1-3.6-4.6-4.7-7.6c-1.1-3-1.6-6.3-1.6-10c0-3.8,0.5-7.1,1.4-10.2
		c0.9-3,2.3-5.6,4-7.7c1.8-2.1,3.9-3.7,6.5-4.8c2.6-1.1,5.5-1.7,8.8-1.7c1.8,0,3.4,0.2,4.9,0.5c1.4,0.4,2.9,0.9,4.4,1.5v-20.9
		l13.1-2.1V291.5z M169.2,269.5c0,4,0.9,7.3,2.7,9.8c1.8,2.5,4.5,3.7,8.1,3.7c1.2,0,2.3,0,3.3-0.1c1-0.1,1.8-0.2,2.5-0.3v-23.8
		c-0.8-0.5-1.9-1-3.2-1.3c-1.3-0.4-2.7-0.5-4-0.5C172.3,256.8,169.2,261,169.2,269.5z"/>
	<path d="M236.6,268.4c0-4.2-0.5-7.2-1.6-9c-1.1-1.8-2.9-2.6-5.6-2.6c-0.8,0-1.7,0-2.6,0.1c-0.9,0.1-1.7,0.2-2.6,0.3V293h-13.1
		v-44.7c1.1-0.3,2.4-0.6,3.9-0.9c1.5-0.3,3.1-0.6,4.8-0.9c1.7-0.3,3.4-0.5,5.1-0.6c1.8-0.1,3.5-0.2,5.2-0.2c3.3,0,6.1,0.4,8.1,1.3
		c2.1,0.9,3.8,1.9,5.1,3c1.9-1.3,4-2.4,6.5-3.2c2.4-0.8,4.7-1.1,6.7-1.1c3.7,0,6.7,0.5,9.1,1.5s4.3,2.5,5.7,4.4
		c1.4,1.9,2.4,4.1,2.9,6.7c0.5,2.6,0.8,5.5,0.8,8.6V293H262v-24.6c0-4.2-0.5-7.2-1.6-9c-1.1-1.8-2.9-2.6-5.6-2.6
		c-0.7,0-1.7,0.2-2.9,0.5c-1.3,0.4-2.3,0.8-3.1,1.3c0.4,1.4,0.7,2.8,0.8,4.3c0.1,1.5,0.2,3.1,0.2,4.8V293h-13.1V268.4z"/>
	<path d="M284.8,270.2c0-4.1,0.6-7.7,1.9-10.8c1.3-3.1,2.9-5.6,5-7.7c2.1-2.1,4.4-3.6,7.1-4.7c2.7-1.1,5.4-1.6,8.2-1.6
		c6.6,0,11.8,2,15.6,6c3.8,4,5.7,9.9,5.7,17.7c0,0.8,0,1.6-0.1,2.5c-0.1,0.9-0.1,1.7-0.2,2.4h-29.7c0.3,2.7,1.6,4.8,3.8,6.4
		c2.2,1.6,5.2,2.4,9,2.4c2.4,0,4.8-0.2,7.1-0.7c2.3-0.4,4.2-1,5.7-1.6l1.8,10.6c-0.7,0.4-1.6,0.7-2.8,1.1c-1.2,0.4-2.5,0.7-3.9,0.9
		c-1.4,0.3-3,0.5-4.6,0.7c-1.6,0.2-3.3,0.3-4.9,0.3c-4.2,0-7.8-0.6-10.9-1.8c-3.1-1.2-5.6-2.9-7.7-5.1c-2-2.1-3.5-4.7-4.5-7.6
		C285.3,276.7,284.8,273.6,284.8,270.2z M315.6,265.2c-0.1-1.1-0.2-2.2-0.6-3.3c-0.3-1.1-0.8-2-1.5-2.8c-0.7-0.8-1.5-1.5-2.6-2
		c-1-0.5-2.3-0.8-3.8-0.8c-1.5,0-2.7,0.3-3.8,0.7c-1.1,0.5-1.9,1.2-2.6,2c-0.7,0.8-1.2,1.8-1.6,2.9c-0.4,1.1-0.7,2.2-0.8,3.3H315.6z
		"/>
	<path d="M356.9,293.8c-3.8-0.1-6.9-0.5-9.3-1.2s-4.3-1.8-5.6-3.2c-1.4-1.4-2.3-3-2.8-5c-0.5-2-0.7-4.2-0.7-6.6v-51l13.1-2.1v50.4
		c0,1.2,0.1,2.2,0.3,3.2c0.2,0.9,0.5,1.7,1,2.4c0.5,0.6,1.2,1.2,2.2,1.6c0.9,0.4,2.2,0.7,3.8,0.8L356.9,293.8z"/>
	<path d="M407,291.5c-1.2,0.4-2.5,0.7-4,1c-1.5,0.3-3.1,0.6-4.8,0.8c-1.7,0.2-3.4,0.4-5.1,0.6c-1.7,0.1-3.4,0.2-5,0.2
		c-3.8,0-7.2-0.6-10.2-1.7c-3-1.1-5.5-2.7-7.6-4.8c-2.1-2.1-3.6-4.6-4.7-7.6c-1.1-3-1.6-6.3-1.6-10c0-3.8,0.5-7.1,1.4-10.2
		c0.9-3,2.3-5.6,4-7.7c1.8-2.1,3.9-3.7,6.5-4.8c2.6-1.1,5.5-1.7,8.8-1.7c1.8,0,3.4,0.2,4.9,0.5c1.4,0.4,2.9,0.9,4.4,1.5v-20.9
		l13.1-2.1V291.5z M377.4,269.5c0,4,0.9,7.3,2.7,9.8c1.8,2.5,4.5,3.7,8.1,3.7c1.2,0,2.3,0,3.3-0.1c1-0.1,1.8-0.2,2.5-0.3v-23.8
		c-0.8-0.5-1.9-1-3.2-1.3c-1.3-0.4-2.7-0.5-4-0.5C380.5,256.8,377.4,261,377.4,269.5z"/>
</g>
<path class="st0" d="M310.6,97.3c0-15.2-11.2-28-26.5-32c1-3.3,1.5-6.8,1.5-10.3c0-17.4-12.7-32-29.4-34.8c0-0.1-0.1-0.1-0.1-0.2
	c-6-10.1-17-16.3-28.7-16.3c-10.4,0-19.7,4.8-25.8,12.3C195.7,8.4,186.4,3.6,176,3.6c-11.7,0-22.7,6.3-28.7,16.3
	c0,0.1-0.1,0.1-0.1,0.2c-16.6,2.8-29.4,17.4-29.4,34.8c0,3.5,0.5,7,1.5,10.3c-15.3,4-26.5,16.8-26.5,32c0,4.7,1.1,9.1,3,13.2
	c-1.7,4-2.5,8.1-2.5,12.5c0,16.3,12,29.8,27.7,32c-1.3,3.5-2,7.4-2,11.4c0,16.5,12.2,30.4,28.2,32.9c6.2,8.6,16.3,14.2,27.8,14.2
	c10.8,0,20.5-5,26.8-12.9c6.3,7.9,15.9,12.9,26.8,12.9c11.4,0,21.5-5.6,27.8-14.2c16-2.5,28.2-16.4,28.2-32.9c0-4-0.7-7.8-2-11.4
	c15.6-2.3,27.7-15.8,27.7-32c0-4.3-0.8-8.5-2.5-12.5C309.6,106.4,310.6,102,310.6,97.3z M175,198.5c-10.6,0-19.3-8.6-19.3-19.3
	c0-3.6,1-7.1,2.8-10.1c2.2-3.5,1.1-8.1-2.4-10.3c-3.5-2.2-8.1-1.1-10.3,2.4c-3.3,5.4-5.1,11.6-5.1,18c0,0.4,0,0.8,0,1.2
	c-4.1-3.4-6.7-8.5-6.7-14.1c0-10.1,8.2-18.3,18.3-18.3s18.3,8.2,18.3,18.3c0,3.2-0.8,6.3-2.4,9c-2,3.6-0.8,8.2,2.8,10.2
	c3.6,2,8.2,0.8,10.2-2.8c2.8-5,4.3-10.7,4.3-16.4c0-17-12.8-31.1-29.3-33.1c1.1-3.2,1.7-6.7,1.7-10.3c0-3.7-0.6-7.3-1.8-10.6
	c15.4-2.8,27.2-16.3,27.2-32.6c0-18.2-14.8-33.1-33.1-33.1c-4.1,0-7.5,3.4-7.5,7.5s3.4,7.5,7.5,7.5c10,0,18.1,8.1,18.1,18.1
	c0,10-8.1,18.1-18.1,18.1c-1.7,0-3.4-0.2-5.1-0.7c0,0-0.1,0-0.1,0c-5.4-4.1-12.2-6.6-19.5-6.6c-4.1,0-7.5,3.4-7.5,7.5
	s3.4,7.5,7.5,7.5c9.6,0,17.4,7.8,17.4,17.4s-7.8,17.4-17.4,17.4c-9,0-16.5-6.9-17.3-15.7c4.8,3,10.4,5.1,16.5,5.8c0.3,0,0.6,0,0.8,0
	c3.8,0,7-2.8,7.4-6.7c0.5-4.1-2.5-7.8-6.6-8.3c-10.7-1.2-18.7-9-18.7-18.2c0-10.1,9.6-18.3,21.5-18.3c6.2,0,12,2.3,16.1,6.2
	c3,2.9,7.7,2.8,10.6-0.2c2.9-3,2.8-7.7-0.2-10.6c-5.6-5.4-13-9-21-10.1c-0.1-0.5-0.2-0.9-0.4-1.4c-1.1-2.5-1.7-5.3-1.7-8.1
	c0-11.2,9.1-20.3,20.3-20.3c7.2,0,13.9,3.9,17.6,10.1c2.1,3.6,6.7,4.8,10.3,2.7c3.6-2.1,4.8-6.7,2.7-10.3
	c-4.1-7.1-10.6-12.4-18.1-15.3c3-2.1,6.7-3.3,10.4-3.3c10.1,0,18.3,8.2,18.3,18.3v60.6c0,9.6-7.8,17.4-17.4,17.4
	c-4.1,0-7.5,3.4-7.5,7.5s3.4,7.5,7.5,7.5c6.4,0,12.4-1.9,17.4-5.1v54.4C194.3,189.9,185.7,198.5,175,198.5z M277.8,140.4
	c-9.6,0-17.4-7.8-17.4-17.4s7.8-17.4,17.4-17.4c4.1,0,7.5-3.4,7.5-7.5s-3.4-7.5-7.5-7.5c-7.3,0-14.1,2.4-19.5,6.6c0,0-0.1,0-0.1,0
	c-1.6,0.5-3.3,0.7-5.1,0.7c-10,0-18.1-8.1-18.1-18.1c0-10,8.1-18.1,18.1-18.1c4.1,0,7.5-3.4,7.5-7.5s-3.4-7.5-7.5-7.5
	c-18.2,0-33.1,14.8-33.1,33.1c0,16.2,11.7,29.8,27.2,32.6c-1.2,3.3-1.8,6.9-1.8,10.6c0,3.6,0.6,7.1,1.7,10.3
	c-16.5,2-29.3,16.1-29.3,33.1c0,5.8,1.5,11.4,4.3,16.4c2,3.6,6.6,4.9,10.2,2.8c3.6-2,4.9-6.6,2.8-10.2c-1.6-2.7-2.4-5.9-2.4-9
	c0-10.1,8.2-18.3,18.3-18.3s18.3,8.2,18.3,18.3c0,5.7-2.6,10.8-6.7,14.1c0-0.4,0-0.8,0-1.2c0-6.4-1.8-12.6-5.1-18
	c-2.2-3.5-6.8-4.6-10.3-2.4c-3.5,2.2-4.6,6.8-2.4,10.3c1.9,3,2.8,6.5,2.8,10.1c0,10.6-8.6,19.3-19.3,19.3s-19.3-8.6-19.3-19.3v-54.4
	c5,3.2,11,5.1,17.4,5.1c4.1,0,7.5-3.4,7.5-7.5s-3.4-7.5-7.5-7.5c-9.6,0-17.4-7.8-17.4-17.4V36.9c0-10.1,8.2-18.3,18.3-18.3
	c3.8,0,7.4,1.2,10.4,3.3c-7.5,2.8-14,8.1-18.1,15.3c-2.1,3.6-0.9,8.2,2.7,10.3c3.6,2.1,8.2,0.9,10.3-2.7
	c3.6-6.2,10.4-10.1,17.6-10.1c11.2,0,20.3,9.1,20.3,20.3c0,2.8-0.6,5.5-1.7,8.1c-0.2,0.5-0.3,0.9-0.4,1.4c-8,1.1-15.4,4.7-21,10.1
	c-3,2.9-3,7.6-0.2,10.6c2.9,3,7.6,3,10.6,0.2c4.1-4,10-6.2,16.1-6.2c11.8,0,21.5,8.2,21.5,18.3c0,9.2-8,17-18.7,18.2
	c-4.1,0.5-7.1,4.2-6.6,8.3c0.4,3.8,3.7,6.7,7.4,6.7c0.3,0,0.6,0,0.8,0c6.1-0.7,11.7-2.7,16.5-5.8
	C294.2,133.4,286.8,140.4,277.8,140.4z"/>
</svg>
